Name                           | Open       | Closed     | MR         | Delete    
10.12                          |          0 |          0 |          0 | Delete    
MikePerry201406R               |          0 |          0 |          0 | Delete    
MikePerry201408R               |          0 |          0 |          0 | Delete    
TorBrowser                     |          0 |          0 |          0 | Delete    
TorBrowserTeam201406           |          0 |          0 |          0 | Delete    
TorBrowserTeam201408           |          0 |          0 |          0 | Delete    
TorBrowserTeam201409           |          0 |          0 |          0 | Delete    
TorBrowserTeam201502           |          0 |          0 |          0 | Delete    
TorBrowserTeam201605           |          0 |          0 |          0 | Delete    
TorBrowserTeam201611R          |          0 |          0 |          0 | Delete    
apparmor                       |          0 |          0 |          0 | Delete    
bridge                         |          0 |          0 |          0 | Delete    
component::circumvention/meek  |          0 |          0 |          0 | Delete    
easy                           |          0 |          0 |          0 | Delete    
ff31-esr                       |          0 |          0 |          0 | Delete    
ff38-esr                       |          0 |          0 |          0 | Delete    
ff45-esr                       |          0 |          0 |          0 | Delete    
goptlib                        |          0 |          0 |          0 | Delete    
jar                            |          0 |          0 |          0 | Delete    
javascript                     |          0 |          0 |          0 | Delete    
macOS                          |          0 |          0 |          0 | Delete    
meek                           |          0 |          0 |          0 | Delete    
meek-azure                     |          0 |          0 |          0 | Delete    
moat                           |          0 |          0 |          0 | Delete    
network-team-roadmap-2019-Q1Q2 |          0 |          0 |          0 | Delete    
owner::clan                    |          0 |          0 |          0 | Delete    
owner::dcf                     |          0 |          0 |          0 | Delete    
owner::inf0                    |          0 |          0 |          0 | Delete    
owner::mcs                     |          0 |          0 |          0 | Delete    
owner::sina                    |          0 |          0 |          0 | Delete    
owner::yawning                 |          0 |          0 |          0 | Delete    
parent::10935                  |          0 |          0 |          0 | Delete    
parent::12620                  |          0 |          0 |          0 | Delete    
parent::24689                  |          0 |          0 |          0 | Delete    
priority::high                 |          0 |          0 |          0 | Delete    
priority::low                  |          0 |          0 |          0 | Delete    
priority::medium               |          0 |          0 |          0 | Delete    
regression                     |          0 |          0 |          0 | Delete    
reporter::6h72Q484AddGha8H     |          0 |          0 |          0 | Delete    
reporter::bakertaylor28        |          0 |          0 |          0 | Delete    
reporter::habib                |          0 |          0 |          0 | Delete    
reporter::itslannas            |          0 |          0 |          0 | Delete    
reporter::john1deer            |          0 |          0 |          0 | Delete    
reporter::nsuchy               |          0 |          0 |          0 | Delete    
reporter::tagener-noisu        |          0 |          0 |          0 | Delete    
reporter::tordevSZ0            |          0 |          0 |          0 | Delete    
reporter::weiruo               |          0 |          0 |          0 | Delete    
resolution::duplicate          |          0 |          0 |          0 | Delete    
resolution::fixed              |          0 |          0 |          0 | Delete    
resolution::implemented        |          0 |          0 |          0 | Delete    
resolution::invalid            |          0 |          0 |          0 | Delete    
resolution::not a bug          |          0 |          0 |          0 | Delete    
resolution::user disappeared   |          0 |          0 |          0 | Delete    
resolution::wontfix            |          0 |          0 |          0 | Delete    
reviewer::ahf                  |          0 |          0 |          0 | Delete    
reviewer::cohosh               |          0 |          0 |          0 | Delete    
server                         |          0 |          0 |          0 | Delete    
severity::major                |          0 |          0 |          0 | Delete    
severity::minor                |          0 |          0 |          0 | Delete    
severity::normal               |          0 |          0 |          0 | Delete    
sierra                         |          0 |          0 |          0 | Delete    
status::assigned               |          0 |          0 |          0 | Delete    
status::closed                 |          0 |          0 |          0 | Delete    
status::new                    |          0 |          0 |          0 | Delete    
status::reopened               |          0 |          0 |          0 | Delete    
tbb-6.0-issues                 |          0 |          0 |          0 | Delete    
tbb-6.0-must                   |          0 |          0 |          0 | Delete    
tbb-bridges                    |          0 |          0 |          0 | Delete    
tbb-regression                 |          0 |          0 |          0 | Delete    
type::defect                   |          0 |          0 |          0 | Delete    
type::enhancement              |          0 |          0 |          0 | Delete    
type::project                  |          0 |          0 |          0 | Delete    
type::task                     |          0 |          0 |          0 | Delete    
utls                           |          0 |          0 |          0 | Delete    
version::tor 0.3.2.10          |          0 |          0 |          0 | Delete    
version::tor 0.4.1.5           |          0 |          0 |          0 | Delete    
webextension                   |          0 |          0 |          0 | Delete    
