Name                           | Open       | Closed     | MR         | Delete    
GeorgKoppen202003              |          0 |          0 |          0 | Delete    
actualpoints::0.5              |          0 |          0 |          0 | Delete    
actualpoints::1                |          0 |          0 |          0 | Delete    
component::metrics/exit scanner |          0 |          0 |          0 | Delete    
exitscanner                    |          0 |          0 |          0 | Delete    
metrics-roadmap-2019-q2        |          0 |          0 |          0 | Delete    
metrics-team-roadmap-2020      |          0 |          0 |          0 | Delete    
metrics-team-roadmap-2020Q1    |          0 |          0 |          0 | Delete    
network-health                 |          0 |          0 |          0 | Delete    
network-health-roadmap-2020Q1  |          0 |          0 |          0 | Delete    
owner::irl                     |          0 |          0 |          0 | Delete    
owner::metrics-team            |          0 |          0 |          0 | Delete    
parent::29399                  |          0 |          0 |          0 | Delete    
parent::29650                  |          0 |          0 |          0 | Delete    
parent::29654                  |          0 |          0 |          0 | Delete    
parent::33507                  |          0 |          0 |          0 | Delete    
points::0.5                    |          0 |          0 |          0 | Delete    
points::1                      |          0 |          0 |          0 | Delete    
points::1.2                    |          0 |          0 |          0 | Delete    
points::2                      |          0 |          0 |          0 | Delete    
points::6                      |          0 |          0 |          0 | Delete    
priority::high                 |          0 |          0 |          0 | Delete    
priority::immediate            |          0 |          0 |          0 | Delete    
priority::medium               |          0 |          0 |          0 | Delete    
priority::very high            |          0 |          0 |          0 | Delete    
reporter::Tor235               |          0 |          0 |          0 | Delete    
resolution::fixed              |          0 |          0 |          0 | Delete    
resolution::implemented        |          0 |          0 |          0 | Delete    
resolution::not a bug          |          0 |          0 |          0 | Delete    
resolution::wontfix            |          0 |          0 |          0 | Delete    
reviewer::anarcat              |          0 |          0 |          0 | Delete    
reviewer::karsten              |          0 |          0 |          0 | Delete    
severity::critical             |          0 |          0 |          0 | Delete    
severity::normal               |          0 |          0 |          0 | Delete    
status::accepted               |          0 |          0 |          0 | Delete    
status::closed                 |          0 |          0 |          0 | Delete    
status::new                    |          0 |          0 |          0 | Delete    
type::defect                   |          0 |          0 |          0 | Delete    
type::project                  |          0 |          0 |          0 | Delete    
type::task                     |          0 |          0 |          0 | Delete    
