Name                           | Open       | Closed     | MR         | Delete    
SponsorZ                       |          0 |          0 |          0 | Delete    
actualpoints::14               |          0 |          0 |          0 | Delete    
component::metrics utilities   |          0 |          0 |          0 | Delete    
owner::asn                     |          0 |          0 |          0 | Delete    
owner::karsten                 |          0 |          0 |          0 | Delete    
owner::rransom                 |          0 |          0 |          0 | Delete    
parent::6067                   |          0 |          0 |          0 | Delete    
parent::6460                   |          0 |          0 |          0 | Delete    
points::10                     |          0 |          0 |          0 | Delete    
priority::low                  |          0 |          0 |          0 | Delete    
priority::medium               |          0 |          0 |          0 | Delete    
priority::very low             |          0 |          0 |          0 | Delete    
resolution::fixed              |          0 |          0 |          0 | Delete    
resolution::implemented        |          0 |          0 |          0 | Delete    
resolution::not a bug          |          0 |          0 |          0 | Delete    
resolution::wontfix            |          0 |          0 |          0 | Delete    
status::closed                 |          0 |          0 |          0 | Delete    
type::defect                   |          0 |          0 |          0 | Delete    
type::enhancement              |          0 |          0 |          0 | Delete    
type::project                  |          0 |          0 |          0 | Delete    
type::task                     |          0 |          0 |          0 | Delete    
