Name                           | Open       | Closed     | MR         | Delete    
component::core tor/pytorctl   |          0 |          0 |          0 | Delete    
owner::teor                    |          0 |          0 |          0 | Delete    
owner::tom                     |          0 |          0 |          0 | Delete    
parent::13630                  |          0 |          0 |          0 | Delete    
parent::17064                  |          0 |          0 |          0 | Delete    
parent::24225                  |          0 |          0 |          0 | Delete    
points::0.5                    |          0 |          0 |          0 | Delete    
priority::medium               |          0 |          0 |          0 | Delete    
resolution::wontfix            |          0 |          0 |          0 | Delete    
severity::normal               |          0 |          0 |          0 | Delete    
status::closed                 |          0 |          0 |          0 | Delete    
status::needs-review           |          0 |          0 |          0 | Delete    
status::new                    |          0 |          0 |          0 | Delete    
tor-bwauth                     |          0 |          0 |          0 | Delete    
type::defect                   |          0 |          0 |          0 | Delete    
type::enhancement              |          0 |          0 |          0 | Delete    
