Name                           | Open       | Closed     | MR         | Delete    
10.7.5                         |          0 |          0 |          0 | Delete    
19.0                           |          0 |          0 |          0 | Delete    
2.0.2                          |          0 |          0 |          0 | Delete    
2014.4.16                      |          0 |          0 |          0 | Delete    
2014.9.11                      |          0 |          0 |          0 | Delete    
3.4.5                          |          0 |          0 |          0 | Delete    
3.45                           |          0 |          0 |          0 | Delete    
3.5                            |          0 |          0 |          0 | Delete    
3.5.1                          |          0 |          0 |          0 | Delete    
38                             |          0 |          0 |          0 | Delete    
38.0                           |          0 |          0 |          0 | Delete    
404                            |          0 |          0 |          0 | Delete    
5.0.1.xpi                      |          0 |          0 |          0 | Delete    
AffectsTails                   |          0 |          0 |          0 | Delete    
BBC                            |          0 |          0 |          0 | Delete    
Beta                           |          0 |          0 |          0 | Delete    
Block                          |          0 |          0 |          0 | Delete    
CSS                            |          0 |          0 |          0 | Delete    
Chrome                         |          0 |          0 |          0 | Delete    
CloudFront                     |          0 |          0 |          0 | Delete    
Cloudfront                     |          0 |          0 |          0 | Delete    
Connection                     |          0 |          0 |          0 | Delete    
Criterion                      |          0 |          0 |          0 | Delete    
Daily                          |          0 |          0 |          0 | Delete    
Download                       |          0 |          0 |          0 | Delete    
EFF-HTTPS                      |          0 |          0 |          0 | Delete    
Everywhere                     |          0 |          0 |          0 | Delete    
FDM                            |          0 |          0 |          0 | Delete    
Facebook                       |          0 |          0 |          0 | Delete    
Firefox                        |          0 |          0 |          0 | Delete    
Fix                            |          0 |          0 |          0 | Delete    
Free                           |          0 |          0 |          0 | Delete    
GUI                            |          0 |          0 |          0 | Delete    
HTTPS                          |          0 |          0 |          0 | Delete    
HTTPS-E                        |          0 |          0 |          0 | Delete    
HTTPS-Everywhere               |          0 |          0 |          0 | Delete    
HTTPSblocking                  |          0 |          0 |          0 | Delete    
HTTPblocking                   |          0 |          0 |          0 | Delete    
ImageShack                     |          0 |          0 |          0 | Delete    
Images                         |          0 |          0 |          0 | Delete    
InfoQ                          |          0 |          0 |          0 | Delete    
Lion                           |          0 |          0 |          0 | Delete    
LongTail                       |          0 |          0 |          0 | Delete    
MIT                            |          0 |          0 |          0 | Delete    
Mac                            |          0 |          0 |          0 | Delete    
Manager                        |          0 |          0 |          0 | Delete    
MikePerry201204                |          0 |          0 |          0 | Delete    
MikePerry201207                |          0 |          0 |          0 | Delete    
MikePerry201208                |          0 |          0 |          0 | Delete    
MikePerry201401R               |          0 |          0 |          0 | Delete    
MikePerryIteration20110320     |          0 |          0 |          0 | Delete    
MikePerryIteration20110501     |          0 |          0 |          0 | Delete    
MikePerryIteration20111120     |          0 |          0 |          0 | Delete    
NSS                            |          0 |          0 |          0 | Delete    
NYDailyNews                    |          0 |          0 |          0 | Delete    
OS                             |          0 |          0 |          0 | Delete    
Observatory                    |          0 |          0 |          0 | Delete    
Onion                          |          0 |          0 |          0 | Delete    
PBS                            |          0 |          0 |          0 | Delete    
PaidContent                    |          0 |          0 |          0 | Delete    
Phoronix                       |          0 |          0 |          0 | Delete    
PrivateMode                    |          0 |          0 |          0 | Delete    
Problems                       |          0 |          0 |          0 | Delete    
Report                         |          0 |          0 |          0 | Delete    
SSL                            |          0 |          0 |          0 | Delete    
Science                        |          0 |          0 |          0 | Delete    
ScienceDaily                   |          0 |          0 |          0 | Delete    
SeaMonkey                      |          0 |          0 |          0 | Delete    
Service                        |          0 |          0 |          0 | Delete    
SponsorJ                       |          0 |          0 |          0 | Delete    
Start.Me                       |          0 |          0 |          0 | Delete    
Suggestion                     |          0 |          0 |          0 | Delete    
TBB                            |          0 |          0 |          0 | Delete    
TicketMaster                   |          0 |          0 |          0 | Delete    
TorBrowserTeam201503R          |          0 |          0 |          0 | Delete    
TorBrowserTeam201608           |          0 |          0 |          0 | Delete    
TorBrowserTeam201806R          |          0 |          0 |          0 | Delete    
Translator                     |          0 |          0 |          0 | Delete    
UI                             |          0 |          0 |          0 | Delete    
URL                            |          0 |          0 |          0 | Delete    
Washington                     |          0 |          0 |          0 | Delete    
Week                           |          0 |          0 |          0 | Delete    
Wifi                           |          0 |          0 |          0 | Delete    
Win10                          |          0 |          0 |          0 | Delete    
X                              |          0 |          0 |          0 | Delete    
Yahoo                          |          0 |          0 |          0 | Delete    
actualpoints::10               |          0 |          0 |          0 | Delete    
actualpoints::12               |          0 |          0 |          0 | Delete    
actualpoints::2                |          0 |          0 |          0 | Delete    
actualpoints::20 (pde: 6? mikeperry: 14) |          0 |          0 |          0 | Delete    
actualpoints::3                |          0 |          0 |          0 | Delete    
actualpoints::7                |          0 |          0 |          0 | Delete    
actualpoints::HTTPS Everywhere www.homedepot.com |          0 |          0 |          0 | Delete    
add                            |          0 |          0 |          0 | Delete    
addon                          |          0 |          0 |          0 | Delete    
akamai                         |          0 |          0 |          0 | Delete    
akamaihd                       |          0 |          0 |          0 | Delete    
alternate                      |          0 |          0 |          0 | Delete    
amazon                         |          0 |          0 |          0 | Delete    
amazonaws                      |          0 |          0 |          0 | Delete    
api                            |          0 |          0 |          0 | Delete    
app                            |          0 |          0 |          0 | Delete    
aurora                         |          0 |          0 |          0 | Delete    
bbc                            |          0 |          0 |          0 | Delete    
beta                           |          0 |          0 |          0 | Delete    
blank                          |          0 |          0 |          0 | Delete    
blogs.msdn.com                 |          0 |          0 |          0 | Delete    
boxee                          |          0 |          0 |          0 | Delete    
breakage                       |          0 |          0 |          0 | Delete    
breaks                         |          0 |          0 |          0 | Delete    
broken                         |          0 |          0 |          0 | Delete    
bug                            |          0 |          0 |          0 | Delete    
c-span                         |          0 |          0 |          0 | Delete    
cacert                         |          0 |          0 |          0 | Delete    
captcha                        |          0 |          0 |          0 | Delete    
change                         |          0 |          0 |          0 | Delete    
chrome                         |          0 |          0 |          0 | Delete    
chromium                       |          0 |          0 |          0 | Delete    
citibank                       |          0 |          0 |          0 | Delete    
citrix                         |          0 |          0 |          0 | Delete    
cloudfront                     |          0 |          0 |          0 | Delete    
comment                        |          0 |          0 |          0 | Delete    
comments                       |          0 |          0 |          0 | Delete    
component                      |          0 |          0 |          0 | Delete    
component::https everywhere/eff-https everywhere |          0 |          0 |          0 | Delete    
conflict                       |          0 |          0 |          0 | Delete    
connection                     |          0 |          0 |          0 | Delete    
console                        |          0 |          0 |          0 | Delete    
coursera                       |          0 |          0 |          0 | Delete    
cpu                            |          0 |          0 |          0 | Delete    
cr                             |          0 |          0 |          0 | Delete    
craigslist                     |          0 |          0 |          0 | Delete    
crash                          |          0 |          0 |          0 | Delete    
crlf                           |          0 |          0 |          0 | Delete    
cspan                          |          0 |          0 |          0 | Delete    
defect                         |          0 |          0 |          0 | Delete    
disable                        |          0 |          0 |          0 | Delete    
disappear                      |          0 |          0 |          0 | Delete    
discogs                        |          0 |          0 |          0 | Delete    
dna.ancestry.com               |          0 |          0 |          0 | Delete    
e10s                           |          0 |          0 |          0 | Delete    
embed                          |          0 |          0 |          0 | Delete    
empty                          |          0 |          0 |          0 | Delete    
enable                         |          0 |          0 |          0 | Delete    
errors                         |          0 |          0 |          0 | Delete    
everywhere                     |          0 |          0 |          0 | Delete    
exchange                       |          0 |          0 |          0 | Delete    
extension                      |          0 |          0 |          0 | Delete    
facebook                       |          0 |          0 |          0 | Delete    
fail                           |          0 |          0 |          0 | Delete    
failure                        |          0 |          0 |          0 | Delete    
favicon                        |          0 |          0 |          0 | Delete    
feedback                       |          0 |          0 |          0 | Delete    
fennec                         |          0 |          0 |          0 | Delete    
firefox                        |          0 |          0 |          0 | Delete    
fix                            |          0 |          0 |          0 | Delete    
flaw                           |          0 |          0 |          0 | Delete    
fmylife                        |          0 |          0 |          0 | Delete    
forgery                        |          0 |          0 |          0 | Delete    
freeze                         |          0 |          0 |          0 | Delete    
gamespot.com                   |          0 |          0 |          0 | Delete    
gamestop                       |          0 |          0 |          0 | Delete    
gentoo                         |          0 |          0 |          0 | Delete    
glitch                         |          0 |          0 |          0 | Delete    
gmail                          |          0 |          0 |          0 | Delete    
google                         |          0 |          0 |          0 | Delete    
gotomeeting                    |          0 |          0 |          0 | Delete    
gsoc2013                       |          0 |          0 |          0 | Delete    
hang                           |          0 |          0 |          0 | Delete    
hidden                         |          0 |          0 |          0 | Delete    
history.com                    |          0 |          0 |          0 | Delete    
http-only                      |          0 |          0 |          0 | Delete    
https                          |          0 |          0 |          0 | Delete    
https-e                        |          0 |          0 |          0 | Delete    
https-everywhere               |          0 |          0 |          0 | Delete    
httpse-ruleset                 |          0 |          0 |          0 | Delete    
httpse-ruleset-bug             |          0 |          0 |          0 | Delete    
httpseverywhere                |          0 |          0 |          0 | Delete    
htttps                         |          0 |          0 |          0 | Delete    
icon                           |          0 |          0 |          0 | Delete    
image                          |          0 |          0 |          0 | Delete    
images                         |          0 |          0 |          0 | Delete    
imdb                           |          0 |          0 |          0 | Delete    
initialize                     |          0 |          0 |          0 | Delete    
interface                      |          0 |          0 |          0 | Delete    
iplayer                        |          0 |          0 |          0 | Delete    
jwplayer                       |          0 |          0 |          0 | Delete    
l10n                           |          0 |          0 |          0 | Delete    
layout                         |          0 |          0 |          0 | Delete    
leak                           |          0 |          0 |          0 | Delete    
lf                             |          0 |          0 |          0 | Delete    
libnss3.dylib                  |          0 |          0 |          0 | Delete    
linebreak                      |          0 |          0 |          0 | Delete    
livestream                     |          0 |          0 |          0 | Delete    
localization                   |          0 |          0 |          0 | Delete    
login                          |          0 |          0 |          0 | Delete    
mail                           |          0 |          0 |          0 | Delete    
malwarebytes                   |          0 |          0 |          0 | Delete    
maps                           |          0 |          0 |          0 | Delete    
meamory                        |          0 |          0 |          0 | Delete    
menu                           |          0 |          0 |          0 | Delete    
microsoft                      |          0 |          0 |          0 | Delete    
milestone::HTTPS-E 3.2         |          0 |          0 |          0 | Delete    
milestone::HTTPS-E 3.2.1       |          0 |          0 |          0 | Delete    
milestone::HTTPS-E 3.2.2       |          0 |          0 |          0 | Delete    
milestone::HTTPS-E 3.2.3       |          0 |          0 |          0 | Delete    
milestone::HTTPS-E 3.3         |          0 |          0 |          0 | Delete    
milestone::HTTPS-E 3.5         |          0 |          0 |          0 | Delete    
milestone::HTTPS-E 4 stable    |          0 |          0 |          0 | Delete    
milestone::HTTPS-E 4.0dev15    |          0 |          0 |          0 | Delete    
milestone::HTTPS-E 4.0dev7     |          0 |          0 |          0 | Delete    
milestone::HTTPS-E 4.0dev8     |          0 |          0 |          0 | Delete    
milestone::HTTPS-E 4.0dev9     |          0 |          0 |          0 | Delete    
milestone::HTTPS-E next Chrome release |          0 |          0 |          0 | Delete    
milestone::HTTPS-E next Firefox dev release |          0 |          0 |          0 | Delete    
milestone::HTTPSE Cr 2013.4.2x |          0 |          0 |          0 | Delete    
milestone::HTTPSE Cr 2013.8.17 |          0 |          0 |          0 | Delete    
milestone::TorBrowserBundle 2.3.x-stable |          0 |          0 |          0 | Delete    
miranda-im.org                 |          0 |          0 |          0 | Delete    
mozilla                        |          0 |          0 |          0 | Delete    
name                           |          0 |          0 |          0 | Delete    
nasa.gov                       |          0 |          0 |          0 | Delete    
neocities                      |          0 |          0 |          0 | Delete    
new                            |          0 |          0 |          0 | Delete    
newline                        |          0 |          0 |          0 | Delete    
nightly                        |          0 |          0 |          0 | Delete    
omgubuntu                      |          0 |          0 |          0 | Delete    
openbenchmarking.org           |          0 |          0 |          0 | Delete    
opendns                        |          0 |          0 |          0 | Delete    
openstreetmap                  |          0 |          0 |          0 | Delete    
options                        |          0 |          0 |          0 | Delete    
ordering                       |          0 |          0 |          0 | Delete    
osm                            |          0 |          0 |          0 | Delete    
other                          |          0 |          0 |          0 | Delete    
owner::MB                      |          0 |          0 |          0 | Delete    
owner::OsamaK                  |          0 |          0 |          0 | Delete    
owner::cypherpunks             |          0 |          0 |          0 | Delete    
owner::dtauerbach              |          0 |          0 |          0 | Delete    
owner::emmapeel                |          0 |          0 |          0 | Delete    
owner::frank.breitling@gmx.de  |          0 |          0 |          0 | Delete    
owner::git@goeswhere.com       |          0 |          0 |          0 | Delete    
owner::graffatcolmingov        |          0 |          0 |          0 | Delete    
owner::jacobske87              |          0 |          0 |          0 | Delete    
owner::johnakabean             |          0 |          0 |          0 | Delete    
owner::jsha                    |          0 |          0 |          0 | Delete    
owner::legind                  |          0 |          0 |          0 | Delete    
owner::lisacyao                |          0 |          0 |          0 | Delete    
owner::ma1                     |          0 |          0 |          0 | Delete    
owner::micahlee                |          0 |          0 |          0 | Delete    
owner::mikeperry               |          0 |          0 |          0 | Delete    
owner::mikkoharhanen           |          0 |          0 |          0 | Delete    
owner::pde                     |          0 |          0 |          0 | Delete    
owner::saint                   |          0 |          0 |          0 | Delete    
owner::schoen                  |          0 |          0 |          0 | Delete    
owner::tbb-team                |          0 |          0 |          0 | Delete    
owner::virgil                  |          0 |          0 |          0 | Delete    
owner::yan                     |          0 |          0 |          0 | Delete    
owner::zyan                    |          0 |          0 |          0 | Delete    
pandora                        |          0 |          0 |          0 | Delete    
parent::10033                  |          0 |          0 |          0 | Delete    
parent::10257                  |          0 |          0 |          0 | Delete    
parent::11755                  |          0 |          0 |          0 | Delete    
parent::2161                   |          0 |          0 |          0 | Delete    
parent::2428                   |          0 |          0 |          0 | Delete    
parent::3190                   |          0 |          0 |          0 | Delete    
parent::3777                   |          0 |          0 |          0 | Delete    
parent::3815                   |          0 |          0 |          0 | Delete    
parent::4199                   |          0 |          0 |          0 | Delete    
parent::4205                   |          0 |          0 |          0 | Delete    
parent::4286                   |          0 |          0 |          0 | Delete    
parent::4408                   |          0 |          0 |          0 | Delete    
parent::4595                   |          0 |          0 |          0 | Delete    
parent::4804                   |          0 |          0 |          0 | Delete    
parent::5196                   |          0 |          0 |          0 | Delete    
parent::5274                   |          0 |          0 |          0 | Delete    
parent::5496                   |          0 |          0 |          0 | Delete    
parent::5585                   |          0 |          0 |          0 | Delete    
parent::5709                   |          0 |          0 |          0 | Delete    
parent::5731                   |          0 |          0 |          0 | Delete    
parent::5894                   |          0 |          0 |          0 | Delete    
parent::6276                   |          0 |          0 |          0 | Delete    
parent::6860                   |          0 |          0 |          0 | Delete    
parent::6975                   |          0 |          0 |          0 | Delete    
parent::6980                   |          0 |          0 |          0 | Delete    
parent::7075                   |          0 |          0 |          0 | Delete    
parent::7090                   |          0 |          0 |          0 | Delete    
parent::7104                   |          0 |          0 |          0 | Delete    
parent::7132                   |          0 |          0 |          0 | Delete    
parent::7179                   |          0 |          0 |          0 | Delete    
parent::7539                   |          0 |          0 |          0 | Delete    
parent::7851                   |          0 |          0 |          0 | Delete    
parent::8627                   |          0 |          0 |          0 | Delete    
parent::8693                   |          0 |          0 |          0 | Delete    
parent::8774                   |          0 |          0 |          0 | Delete    
parent::8890                   |          0 |          0 |          0 | Delete    
parent::9480                   |          0 |          0 |          0 | Delete    
parent::9511                   |          0 |          0 |          0 | Delete    
parent::9769                   |          0 |          0 |          0 | Delete    
parent::9809                   |          0 |          0 |          0 | Delete    
patch                          |          0 |          0 |          0 | Delete    
pbs                            |          0 |          0 |          0 | Delete    
points::2                      |          0 |          0 |          0 | Delete    
points::20                     |          0 |          0 |          0 | Delete    
points::3                      |          0 |          0 |          0 | Delete    
points::4                      |          0 |          0 |          0 | Delete    
points::6                      |          0 |          0 |          0 | Delete    
points::7                      |          0 |          0 |          0 | Delete    
points::8                      |          0 |          0 |          0 | Delete    
port-number                    |          0 |          0 |          0 | Delete    
priority::high                 |          0 |          0 |          0 | Delete    
priority::immediate            |          0 |          0 |          0 | Delete    
priority::low                  |          0 |          0 |          0 | Delete    
priority::medium               |          0 |          0 |          0 | Delete    
priority::very high            |          0 |          0 |          0 | Delete    
priority::very low             |          0 |          0 |          0 | Delete    
privacy                        |          0 |          0 |          0 | Delete    
problem                        |          0 |          0 |          0 | Delete    
process                        |          0 |          0 |          0 | Delete    
radar                          |          0 |          0 |          0 | Delete    
reblog                         |          0 |          0 |          0 | Delete    
reddit                         |          0 |          0 |          0 | Delete    
redirection                    |          0 |          0 |          0 | Delete    
refresh                        |          0 |          0 |          0 | Delete    
reload                         |          0 |          0 |          0 | Delete    
report                         |          0 |          0 |          0 | Delete    
reporter::6BDEjUbM$.Li         |          0 |          0 |          0 | Delete    
reporter::6dknG85JfJyTbkg3     |          0 |          0 |          0 | Delete    
reporter::ABCD                 |          0 |          0 |          0 | Delete    
reporter::Ache                 |          0 |          0 |          0 | Delete    
reporter::Alan_De_Smet         |          0 |          0 |          0 | Delete    
reporter::Anomie               |          0 |          0 |          0 | Delete    
reporter::Atalanttore          |          0 |          0 |          0 | Delete    
reporter::AxelBoldt            |          0 |          0 |          0 | Delete    
reporter::BSOD2600             |          0 |          0 |          0 | Delete    
reporter::Blackfire667         |          0 |          0 |          0 | Delete    
reporter::BlueBayliss          |          0 |          0 |          0 | Delete    
reporter::BugMagnet            |          0 |          0 |          0 | Delete    
reporter::Casper               |          0 |          0 |          0 | Delete    
reporter::Cheech               |          0 |          0 |          0 | Delete    
reporter::CoolPrizes           |          0 |          0 |          0 | Delete    
reporter::Cyc                  |          0 |          0 |          0 | Delete    
reporter::DaemonFC             |          0 |          0 |          0 | Delete    
reporter::Dapper               |          0 |          0 |          0 | Delete    
reporter::Deathtognomes        |          0 |          0 |          0 | Delete    
reporter::DeltaBravo           |          0 |          0 |          0 | Delete    
reporter::Donarsson            |          0 |          0 |          0 | Delete    
reporter::DrMikeTwiddle        |          0 |          0 |          0 | Delete    
reporter::Dr_IT                |          0 |          0 |          0 | Delete    
reporter::Drugoy               |          0 |          0 |          0 | Delete    
reporter::Erom2                |          0 |          0 |          0 | Delete    
reporter::EvanA                |          0 |          0 |          0 | Delete    
reporter::EventHorizon         |          0 |          0 |          0 | Delete    
reporter::EvilHom3r            |          0 |          0 |          0 | Delete    
reporter::Faziri               |          0 |          0 |          0 | Delete    
reporter::FrankStrepin         |          0 |          0 |          0 | Delete    
reporter::Frederick888         |          0 |          0 |          0 | Delete    
reporter::Fry-kun              |          0 |          0 |          0 | Delete    
reporter::Getty                |          0 |          0 |          0 | Delete    
reporter::Ghilteras            |          0 |          0 |          0 | Delete    
reporter::Grantius             |          0 |          0 |          0 | Delete    
reporter::Greendale            |          0 |          0 |          0 | Delete    
reporter::IAmTheClaw           |          0 |          0 |          0 | Delete    
reporter::Ilya_SpongeBob       |          0 |          0 |          0 | Delete    
reporter::Indy                 |          0 |          0 |          0 | Delete    
reporter::JC_Yang              |          0 |          0 |          0 | Delete    
reporter::JForel               |          0 |          0 |          0 | Delete    
reporter::Jildsma              |          0 |          0 |          0 | Delete    
reporter::Joe_Speedboat        |          0 |          0 |          0 | Delete    
reporter::JoshaGibs            |          0 |          0 |          0 | Delete    
reporter::KIAaze               |          0 |          0 |          0 | Delete    
reporter::KOLANICH             |          0 |          0 |          0 | Delete    
reporter::Kaeltis              |          0 |          0 |          0 | Delete    
reporter::Kidlike              |          0 |          0 |          0 | Delete    
reporter::Marnes               |          0 |          0 |          0 | Delete    
reporter::MobiusPizza          |          0 |          0 |          0 | Delete    
reporter::MrSatyre             |          0 |          0 |          0 | Delete    
reporter::NYC_hdl              |          0 |          0 |          0 | Delete    
reporter::NYKevin              |          0 |          0 |          0 | Delete    
reporter::NewEraCracker        |          0 |          0 |          0 | Delete    
reporter::NicoHaase            |          0 |          0 |          0 | Delete    
reporter::NicolasWeb           |          0 |          0 |          0 | Delete    
reporter::Nicolas_Raoul        |          0 |          0 |          0 | Delete    
reporter::NiveusLuna           |          0 |          0 |          0 | Delete    
reporter::NorthboundTrain      |          0 |          0 |          0 | Delete    
reporter::Pabna                |          0 |          0 |          0 | Delete    
reporter::ParticleMan          |          0 |          0 |          0 | Delete    
reporter::Pascal               |          0 |          0 |          0 | Delete    
reporter::Quitch               |          0 |          0 |          0 | Delete    
reporter::RangerXus            |          0 |          0 |          0 | Delete    
reporter::Ronfar               |          0 |          0 |          0 | Delete    
reporter::Rudloff              |          0 |          0 |          0 | Delete    
reporter::Safari               |          0 |          0 |          0 | Delete    
reporter::Sagi                 |          0 |          0 |          0 | Delete    
reporter::Scrapdog             |          0 |          0 |          0 | Delete    
reporter::SilverbackNet        |          0 |          0 |          0 | Delete    
reporter::Snert                |          0 |          0 |          0 | Delete    
reporter::Steve999             |          0 |          0 |          0 | Delete    
reporter::SuppliedRelic        |          0 |          0 |          0 | Delete    
reporter::Tasaar               |          0 |          0 |          0 | Delete    
reporter::Teeh                 |          0 |          0 |          0 | Delete    
reporter::TheCat               |          0 |          0 |          0 | Delete    
reporter::TheLogan             |          0 |          0 |          0 | Delete    
reporter::Tilo                 |          0 |          0 |          0 | Delete    
reporter::Tobu                 |          0 |          0 |          0 | Delete    
reporter::Tpt                  |          0 |          0 |          0 | Delete    
reporter::TumbleWeeD           |          0 |          0 |          0 | Delete    
reporter::User1010             |          0 |          0 |          0 | Delete    
reporter::Veeshush             |          0 |          0 |          0 | Delete    
reporter::abraham              |          0 |          0 |          0 | Delete    
reporter::abral                |          0 |          0 |          0 | Delete    
reporter::acoiro               |          0 |          0 |          0 | Delete    
reporter::adamnorwood          |          0 |          0 |          0 | Delete    
reporter::alexmuller           |          0 |          0 |          0 | Delete    
reporter::alexschrod           |          0 |          0 |          0 | Delete    
reporter::alondas              |          0 |          0 |          0 | Delete    
reporter::alphawolf            |          0 |          0 |          0 | Delete    
reporter::andrew3              |          0 |          0 |          0 | Delete    
reporter::anishbenji           |          0 |          0 |          0 | Delete    
reporter::anon00000000         |          0 |          0 |          0 | Delete    
reporter::anon58684            |          0 |          0 |          0 | Delete    
reporter::arkeat               |          0 |          0 |          0 | Delete    
reporter::athul.iddya          |          0 |          0 |          0 | Delete    
reporter::austin987            |          0 |          0 |          0 | Delete    
reporter::avada                |          0 |          0 |          0 | Delete    
reporter::awh                  |          0 |          0 |          0 | Delete    
reporter::bardi.harborow       |          0 |          0 |          0 | Delete    
reporter::bee                  |          0 |          0 |          0 | Delete    
reporter::beej                 |          0 |          0 |          0 | Delete    
reporter::benjamin             |          0 |          0 |          0 | Delete    
reporter::beuno                |          0 |          0 |          0 | Delete    
reporter::bgeron               |          0 |          0 |          0 | Delete    
reporter::bgshacklett          |          0 |          0 |          0 | Delete    
reporter::bigfoot              |          0 |          0 |          0 | Delete    
reporter::bit0mike             |          0 |          0 |          0 | Delete    
reporter::bo0od                |          0 |          0 |          0 | Delete    
reporter::boklan               |          0 |          0 |          0 | Delete    
reporter::bot                  |          0 |          0 |          0 | Delete    
reporter::brainsik             |          0 |          0 |          0 | Delete    
reporter::bratkartoffel        |          0 |          0 |          0 | Delete    
reporter::browserprivacy       |          0 |          0 |          0 | Delete    
reporter::brunascle            |          0 |          0 |          0 | Delete    
reporter::brunoqc              |          0 |          0 |          0 | Delete    
reporter::bugmenot             |          0 |          0 |          0 | Delete    
reporter::bz922x               |          0 |          0 |          0 | Delete    
reporter::calestyo             |          0 |          0 |          0 | Delete    
reporter::cerrese              |          0 |          0 |          0 | Delete    
reporter::cfr                  |          0 |          0 |          0 | Delete    
reporter::chisel               |          0 |          0 |          0 | Delete    
reporter::chocolateboy         |          0 |          0 |          0 | Delete    
reporter::cketti               |          0 |          0 |          0 | Delete    
reporter::curts                |          0 |          0 |          0 | Delete    
reporter::cyberpunks           |          0 |          0 |          0 | Delete    
reporter::cyrano               |          0 |          0 |          0 | Delete    
reporter::dansage              |          0 |          0 |          0 | Delete    
reporter::daw-bugzilla         |          0 |          0 |          0 | Delete    
reporter::dcslne               |          0 |          0 |          0 | Delete    
reporter::dds                  |          0 |          0 |          0 | Delete    
reporter::debfx                |          0 |          0 |          0 | Delete    
reporter::del-patrick          |          0 |          0 |          0 | Delete    
reporter::delaune              |          0 |          0 |          0 | Delete    
reporter::deltaVector          |          0 |          0 |          0 | Delete    
reporter::denilsonsa           |          0 |          0 |          0 | Delete    
reporter::dm0                  |          0 |          0 |          0 | Delete    
reporter::dosto                |          0 |          0 |          0 | Delete    
reporter::drp                  |          0 |          0 |          0 | Delete    
reporter::dserodio             |          0 |          0 |          0 | Delete    
reporter::dthvt                |          0 |          0 |          0 | Delete    
reporter::duanepaulson         |          0 |          0 |          0 | Delete    
reporter::dudidi               |          0 |          0 |          0 | Delete    
reporter::dveeden              |          0 |          0 |          0 | Delete    
reporter::eilegz               |          0 |          0 |          0 | Delete    
reporter::einar                |          0 |          0 |          0 | Delete    
reporter::elypter              |          0 |          0 |          0 | Delete    
reporter::emk                  |          0 |          0 |          0 | Delete    
reporter::evdvelde             |          0 |          0 |          0 | Delete    
reporter::federico             |          0 |          0 |          0 | Delete    
reporter::felicity             |          0 |          0 |          0 | Delete    
reporter::frak                 |          0 |          0 |          0 | Delete    
reporter::frankyan             |          0 |          0 |          0 | Delete    
reporter::fuglede              |          0 |          0 |          0 | Delete    
reporter::gacelperfinian       |          0 |          0 |          0 | Delete    
reporter::gadelat              |          0 |          0 |          0 | Delete    
reporter::gaia                 |          0 |          0 |          0 | Delete    
reporter::galaxy40             |          0 |          0 |          0 | Delete    
reporter::geeknik              |          0 |          0 |          0 | Delete    
reporter::gene_wood            |          0 |          0 |          0 | Delete    
reporter::germanfox2003        |          0 |          0 |          0 | Delete    
reporter::gidoca               |          0 |          0 |          0 | Delete    
reporter::goodjohnjr           |          0 |          0 |          0 | Delete    
reporter::graingert            |          0 |          0 |          0 | Delete    
reporter::gshybrid             |          0 |          0 |          0 | Delete    
reporter::habakuk              |          0 |          0 |          0 | Delete    
reporter::hanno                |          0 |          0 |          0 | Delete    
reporter::hdhoang              |          0 |          0 |          0 | Delete    
reporter::henare               |          0 |          0 |          0 | Delete    
reporter::henderb              |          0 |          0 |          0 | Delete    
reporter::hendrik              |          0 |          0 |          0 | Delete    
reporter::herojoker            |          0 |          0 |          0 | Delete    
reporter::hheimbuerger         |          0 |          0 |          0 | Delete    
reporter::highflux7            |          0 |          0 |          0 | Delete    
reporter::hirsutilus           |          0 |          0 |          0 | Delete    
reporter::holizz               |          0 |          0 |          0 | Delete    
reporter::howtogeek            |          0 |          0 |          0 | Delete    
reporter::ibotty               |          0 |          0 |          0 | Delete    
reporter::inkerman             |          0 |          0 |          0 | Delete    
reporter::insomniacity         |          0 |          0 |          0 | Delete    
reporter::irving               |          0 |          0 |          0 | Delete    
reporter::jacobske87           |          0 |          0 |          0 | Delete    
reporter::jaedo                |          0 |          0 |          0 | Delete    
reporter::jbruchon             |          0 |          0 |          0 | Delete    
reporter::jcolosino            |          0 |          0 |          0 | Delete    
reporter::jjreisert@alum.mit.edu |          0 |          0 |          0 | Delete    
reporter::jku                  |          0 |          0 |          0 | Delete    
reporter::joey                 |          0 |          0 |          0 | Delete    
reporter::johnk860             |          0 |          0 |          0 | Delete    
reporter::jonlef               |          0 |          0 |          0 | Delete    
reporter::jorgev               |          0 |          0 |          0 | Delete    
reporter::josh                 |          0 |          0 |          0 | Delete    
reporter::joyton               |          0 |          0 |          0 | Delete    
reporter::jph6ttor             |          0 |          0 |          0 | Delete    
reporter::jrporter             |          0 |          0 |          0 | Delete    
reporter::jspice9000           |          0 |          0 |          0 | Delete    
reporter::juniorelson4         |          0 |          0 |          0 | Delete    
reporter::justaguy             |          0 |          0 |          0 | Delete    
reporter::jzhu                 |          0 |          0 |          0 | Delete    
reporter::kargig               |          0 |          0 |          0 | Delete    
reporter::karukoff             |          0 |          0 |          0 | Delete    
reporter::kcisobderf           |          0 |          0 |          0 | Delete    
reporter::keb                  |          0 |          0 |          0 | Delete    
reporter::kenyon               |          0 |          0 |          0 | Delete    
reporter::kit1945              |          0 |          0 |          0 | Delete    
reporter::koryk                |          0 |          0 |          0 | Delete    
reporter::kynan                |          0 |          0 |          0 | Delete    
reporter::lisacyao             |          0 |          0 |          0 | Delete    
reporter::mach                 |          0 |          0 |          0 | Delete    
reporter::macleod199           |          0 |          0 |          0 | Delete    
reporter::martinwguy           |          0 |          0 |          0 | Delete    
reporter::matttbe              |          0 |          0 |          0 | Delete    
reporter::mikkoharhanen        |          0 |          0 |          0 | Delete    
reporter::mildred593           |          0 |          0 |          0 | Delete    
reporter::mkaply               |          0 |          0 |          0 | Delete    
reporter::mkidd                |          0 |          0 |          0 | Delete    
reporter::mnordhoff            |          0 |          0 |          0 | Delete    
reporter::mntgoat              |          0 |          0 |          0 | Delete    
reporter::moonshinefe          |          0 |          0 |          0 | Delete    
reporter::moritasho            |          0 |          0 |          0 | Delete    
reporter::mossroy              |          0 |          0 |          0 | Delete    
reporter::mrmanner             |          0 |          0 |          0 | Delete    
reporter::mroystonward         |          0 |          0 |          0 | Delete    
reporter::mukaiken             |          0 |          0 |          0 | Delete    
reporter::mutoso               |          0 |          0 |          0 | Delete    
reporter::mwinnick             |          0 |          0 |          0 | Delete    
reporter::myers                |          0 |          0 |          0 | Delete    
reporter::nate                 |          0 |          0 |          0 | Delete    
reporter::netbeans             |          0 |          0 |          0 | Delete    
reporter::newacct              |          0 |          0 |          0 | Delete    
reporter::nhraj700             |          0 |          0 |          0 | Delete    
reporter::niko12               |          0 |          0 |          0 | Delete    
reporter::nipsey               |          0 |          0 |          0 | Delete    
reporter::ntkoopman            |          0 |          0 |          0 | Delete    
reporter::nullishzero          |          0 |          0 |          0 | Delete    
reporter::ojab                 |          0 |          0 |          0 | Delete    
reporter::onetimeuser          |          0 |          0 |          0 | Delete    
reporter::online               |          0 |          0 |          0 | Delete    
reporter::openletter           |          0 |          0 |          0 | Delete    
reporter::pander               |          0 |          0 |          0 | Delete    
reporter::paps                 |          0 |          0 |          0 | Delete    
reporter::patomas              |          0 |          0 |          0 | Delete    
reporter::pgkool               |          0 |          0 |          0 | Delete    
reporter::phobie               |          0 |          0 |          0 | Delete    
reporter::pjpii                |          0 |          0 |          0 | Delete    
reporter::pmarquesmota         |          0 |          0 |          0 | Delete    
reporter::pnorman              |          0 |          0 |          0 | Delete    
reporter::primexx              |          0 |          0 |          0 | Delete    
reporter::programmin           |          0 |          0 |          0 | Delete    
reporter::psychonaut           |          0 |          0 |          0 | Delete    
reporter::pzaccaria            |          0 |          0 |          0 | Delete    
reporter::quazgar              |          0 |          0 |          0 | Delete    
reporter::raghos               |          0 |          0 |          0 | Delete    
reporter::raylu                |          0 |          0 |          0 | Delete    
reporter::realdreams           |          0 |          0 |          0 | Delete    
reporter::realityexists        |          0 |          0 |          0 | Delete    
reporter::rebelmouse           |          0 |          0 |          0 | Delete    
reporter::rgb1955              |          0 |          0 |          0 | Delete    
reporter::rhenley              |          0 |          0 |          0 | Delete    
reporter::richw@richw.org      |          0 |          0 |          0 | Delete    
reporter::rimmington           |          0 |          0 |          0 | Delete    
reporter::rmccullough          |          0 |          0 |          0 | Delete    
reporter::rme                  |          0 |          0 |          0 | Delete    
reporter::rohieb               |          0 |          0 |          0 | Delete    
reporter::ronyclau             |          0 |          0 |          0 | Delete    
reporter::rosc2112             |          0 |          0 |          0 | Delete    
reporter::rubin110             |          0 |          0 |          0 | Delete    
reporter::rugk                 |          0 |          0 |          0 | Delete    
reporter::rwbrown              |          0 |          0 |          0 | Delete    
reporter::salty-horse          |          0 |          0 |          0 | Delete    
reporter::sharkwouter          |          0 |          0 |          0 | Delete    
reporter::silviucc             |          0 |          0 |          0 | Delete    
reporter::sirald66             |          0 |          0 |          0 | Delete    
reporter::skissane             |          0 |          0 |          0 | Delete    
reporter::slasher-fun          |          0 |          0 |          0 | Delete    
reporter::smoonen              |          0 |          0 |          0 | Delete    
reporter::sofianeh             |          0 |          0 |          0 | Delete    
reporter::someone              |          0 |          0 |          0 | Delete    
reporter::sonny                |          0 |          0 |          0 | Delete    
reporter::spaceof7             |          0 |          0 |          0 | Delete    
reporter::sra223               |          0 |          0 |          0 | Delete    
reporter::sremick              |          0 |          0 |          0 | Delete    
reporter::stars                |          0 |          0 |          0 | Delete    
reporter::stephenjudge         |          0 |          0 |          0 | Delete    
reporter::strugee              |          0 |          0 |          0 | Delete    
reporter::subsection1t         |          0 |          0 |          0 | Delete    
reporter::sunny                |          0 |          0 |          0 | Delete    
reporter::t3hub3rk1tten        |          0 |          0 |          0 | Delete    
reporter::tedd4u               |          0 |          0 |          0 | Delete    
reporter::teslamodel           |          0 |          0 |          0 | Delete    
reporter::the_dent2001         |          0 |          0 |          0 | Delete    
reporter::thebiggestsmallesterrorthateverhappened |          0 |          0 |          0 | Delete    
reporter::themusicgod1         |          0 |          0 |          0 | Delete    
reporter::threexk              |          0 |          0 |          0 | Delete    
reporter::throwaway1           |          0 |          0 |          0 | Delete    
reporter::throwaway123456      |          0 |          0 |          0 | Delete    
reporter::timelord             |          0 |          0 |          0 | Delete    
reporter::titanous             |          0 |          0 |          0 | Delete    
reporter::tmpname0901          |          0 |          0 |          0 | Delete    
reporter::topka                |          0 |          0 |          0 | Delete    
reporter::torcoascor           |          0 |          0 |          0 | Delete    
reporter::trr                  |          0 |          0 |          0 | Delete    
reporter::tscpd                |          0 |          0 |          0 | Delete    
reporter::tsester              |          0 |          0 |          0 | Delete    
reporter::ugh                  |          0 |          0 |          0 | Delete    
reporter::unggnu               |          0 |          0 |          0 | Delete    
reporter::vbar                 |          0 |          0 |          0 | Delete    
reporter::vegbrasil            |          0 |          0 |          0 | Delete    
reporter::vic                  |          0 |          0 |          0 | Delete    
reporter::vm                   |          0 |          0 |          0 | Delete    
reporter::vsilvar              |          0 |          0 |          0 | Delete    
reporter::war59312             |          0 |          0 |          0 | Delete    
reporter::warp                 |          0 |          0 |          0 | Delete    
reporter::wason92              |          0 |          0 |          0 | Delete    
reporter::willdude             |          0 |          0 |          0 | Delete    
reporter::wombatrunner         |          0 |          0 |          0 | Delete    
reporter::writecode            |          0 |          0 |          0 | Delete    
reporter::xaho                 |          0 |          0 |          0 | Delete    
reporter::xelfer               |          0 |          0 |          0 | Delete    
reporter::xkomczax             |          0 |          0 |          0 | Delete    
reporter::yfdyh000             |          0 |          0 |          0 | Delete    
reporter::ymorin               |          0 |          0 |          0 | Delete    
reporter::zarel                |          0 |          0 |          0 | Delete    
reporter::zep                  |          0 |          0 |          0 | Delete    
reporter::zima                 |          0 |          0 |          0 | Delete    
reporter::zufallsheld          |          0 |          0 |          0 | Delete    
resolution::duplicate          |          0 |          0 |          0 | Delete    
resolution::fixed              |          0 |          0 |          0 | Delete    
resolution::implemented        |          0 |          0 |          0 | Delete    
resolution::invalid            |          0 |          0 |          0 | Delete    
resolution::not a bug          |          0 |          0 |          0 | Delete    
resolution::user disappeared   |          0 |          0 |          0 | Delete    
resolution::wontfix            |          0 |          0 |          0 | Delete    
resolution::worksforme         |          0 |          0 |          0 | Delete    
resources                      |          0 |          0 |          0 | Delete    
rottentomatoes.com             |          0 |          0 |          0 | Delete    
rule                           |          0 |          0 |          0 | Delete    
rules                          |          0 |          0 |          0 | Delete    
ruleset                        |          0 |          0 |          0 | Delete    
rulesets                       |          0 |          0 |          0 | Delete    
safeshepherd                   |          0 |          0 |          0 | Delete    
safeshepherd.com               |          0 |          0 |          0 | Delete    
sciencedaily.com               |          0 |          0 |          0 | Delete    
scribd                         |          0 |          0 |          0 | Delete    
sdk                            |          0 |          0 |          0 | Delete    
seagate                        |          0 |          0 |          0 | Delete    
seamonkey                      |          0 |          0 |          0 | Delete    
security                       |          0 |          0 |          0 | Delete    
severity::blocker              |          0 |          0 |          0 | Delete    
severity::critical             |          0 |          0 |          0 | Delete    
severity::major                |          0 |          0 |          0 | Delete    
severity::minor                |          0 |          0 |          0 | Delete    
severity::normal               |          0 |          0 |          0 | Delete    
severity::trivial              |          0 |          0 |          0 | Delete    
short                          |          0 |          0 |          0 | Delete    
siggraph.org                   |          0 |          0 |          0 | Delete    
site                           |          0 |          0 |          0 | Delete    
sites                          |          0 |          0 |          0 | Delete    
slowness                       |          0 |          0 |          0 | Delete    
soundcloud                     |          0 |          0 |          0 | Delete    
spam                           |          0 |          0 |          0 | Delete    
stack                          |          0 |          0 |          0 | Delete    
startup                        |          0 |          0 |          0 | Delete    
statcounter                    |          0 |          0 |          0 | Delete    
status::accepted               |          0 |          0 |          0 | Delete    
status::assigned               |          0 |          0 |          0 | Delete    
status::closed                 |          0 |          0 |          0 | Delete    
status::needs-information      |          0 |          0 |          0 | Delete    
status::needs-review           |          0 |          0 |          0 | Delete    
status::needs-revision         |          0 |          0 |          0 | Delete    
status::new                    |          0 |          0 |          0 | Delete    
status::reopened               |          0 |          0 |          0 | Delete    
stream                         |          0 |          0 |          0 | Delete    
streaming                      |          0 |          0 |          0 | Delete    
svt                            |          0 |          0 |          0 | Delete    
svtplay                        |          0 |          0 |          0 | Delete    
tab                            |          0 |          0 |          0 | Delete    
tbb                            |          0 |          0 |          0 | Delete    
tbb-3.0                        |          0 |          0 |          0 | Delete    
tbb-disk-leak                  |          0 |          0 |          0 | Delete    
tbb-linkability                |          0 |          0 |          0 | Delete    
tbb-torbutton                  |          0 |          0 |          0 | Delete    
tbb-usability                  |          0 |          0 |          0 | Delete    
tbb-usability-website          |          0 |          0 |          0 | Delete    
technet                        |          0 |          0 |          0 | Delete    
thepiratebay                   |          0 |          0 |          0 | Delete    
thepiratebay.sx                |          0 |          0 |          0 | Delete    
timeout                        |          0 |          0 |          0 | Delete    
toggle                         |          0 |          0 |          0 | Delete    
toolbar                        |          0 |          0 |          0 | Delete    
tor2web                        |          0 |          0 |          0 | Delete    
torbutton                      |          0 |          0 |          0 | Delete    
tumblr                         |          0 |          0 |          0 | Delete    
twitch                         |          0 |          0 |          0 | Delete    
twitch.tv                      |          0 |          0 |          0 | Delete    
type::defect                   |          0 |          0 |          0 | Delete    
type::enhancement              |          0 |          0 |          0 | Delete    
type::project                  |          0 |          0 |          0 | Delete    
type::task                     |          0 |          0 |          0 | Delete    
ui                             |          0 |          0 |          0 | Delete    
unavailable                    |          0 |          0 |          0 | Delete    
untrusted                      |          0 |          0 |          0 | Delete    
update                         |          0 |          0 |          0 | Delete    
updating                       |          0 |          0 |          0 | Delete    
usability                      |          0 |          0 |          0 | Delete    
usage                          |          0 |          0 |          0 | Delete    
usb                            |          0 |          0 |          0 | Delete    
ux                             |          0 |          0 |          0 | Delete    
version                        |          0 |          0 |          0 | Delete    
version::https-e 2.2.1         |          0 |          0 |          0 | Delete    
version::https-e 3.0.0         |          0 |          0 |          0 | Delete    
version::https-e 3.0.2         |          0 |          0 |          0 | Delete    
version::https-e 3.0.4         |          0 |          0 |          0 | Delete    
version::https-e 3.0dev7       |          0 |          0 |          0 | Delete    
version::https-e 3.0development.5 |          0 |          0 |          0 | Delete    
version::https-e 3.1           |          0 |          0 |          0 | Delete    
version::https-e 3.1.2         |          0 |          0 |          0 | Delete    
version::https-e 3.1.4         |          0 |          0 |          0 | Delete    
version::https-e 3.2           |          0 |          0 |          0 | Delete    
version::https-e 3.2.1         |          0 |          0 |          0 | Delete    
version::https-e 3.2.2         |          0 |          0 |          0 | Delete    
version::https-e 3.2.3         |          0 |          0 |          0 | Delete    
version::https-e 3.4.1         |          0 |          0 |          0 | Delete    
version::https-e 3.4.3         |          0 |          0 |          0 | Delete    
version::https-e 4.0dev1       |          0 |          0 |          0 | Delete    
version::https-e 4.0dev10      |          0 |          0 |          0 | Delete    
version::https-e 4.0dev14      |          0 |          0 |          0 | Delete    
version::https-e 4.0dev3       |          0 |          0 |          0 | Delete    
version::https-e 4.0dev4       |          0 |          0 |          0 | Delete    
version::https-e 4.0dev6       |          0 |          0 |          0 | Delete    
version::https-e 4.0dev8       |          0 |          0 |          0 | Delete    
version::https-e chrome 2013.1.18 |          0 |          0 |          0 | Delete    
version::https-e chrome 2013.10.16 |          0 |          0 |          0 | Delete    
version::https-e chrome 2013.3.7 |          0 |          0 |          0 | Delete    
version::https-e chrome 2013.8.16 |          0 |          0 |          0 | Delete    
version::https-e chrome 2013.8.17 |          0 |          0 |          0 | Delete    
version::tor 0.2.2.35          |          0 |          0 |          0 | Delete    
version::tor 0.2.3.7-alpha     |          0 |          0 |          0 | Delete    
version::tor 0.2.5.10          |          0 |          0 |          0 | Delete    
version::tor unspecified       |          0 |          0 |          0 | Delete    
version::unspeficied           |          0 |          0 |          0 | Delete    
video                          |          0 |          0 |          0 | Delete    
videos                         |          0 |          0 |          0 | Delete    
visual                         |          0 |          0 |          0 | Delete    
web                            |          0 |          0 |          0 | Delete    
webfonts                       |          0 |          0 |          0 | Delete    
website                        |          0 |          0 |          0 | Delete    
wikipedia                      |          0 |          0 |          0 | Delete    
window                         |          0 |          0 |          0 | Delete    
with                           |          0 |          0 |          0 | Delete    
wunderground                   |          0 |          0 |          0 | Delete    
yandex                         |          0 |          0 |          0 | Delete    
yandex.ru                      |          0 |          0 |          0 | Delete    
youtube                        |          0 |          0 |          0 | Delete    
zattoo                         |          0 |          0 |          0 | Delete    
