Name                           | Open       | Closed     | MR         | Delete    
TorBrowserTeam202004R          |          0 |          0 |          0 | Delete    
component::applications/tor browser |          0 |          0 |          0 | Delete    
gitlab-tb-jtorctl              |          0 |          0 |          0 | Delete    
owner::tbb-team                |          0 |          0 |          0 | Delete    
priority::high                 |          0 |          0 |          0 | Delete    
reviewer::sysrqb               |          0 |          0 |          0 | Delete    
severity::normal               |          0 |          0 |          0 | Delete    
status::needs-review           |          0 |          0 |          0 | Delete    
tbb-mobile                     |          0 |          0 |          0 | Delete    
type::defect                   |          0 |          0 |          0 | Delete    
