Name                           | Open       | Closed     | MR         | Delete    
GeorgKoppen202005              |          0 |          0 |          0 | Delete    
TorBrowserTeam201711R          |          0 |          0 |          0 | Delete    
TorBrowserTeam201801R          |          0 |          0 |          0 | Delete    
TorBrowserTeam201802R          |          0 |          0 |          0 | Delete    
TorBrowserTeam201803R          |          0 |          0 |          0 | Delete    
TorBrowserTeam201804R          |          0 |          0 |          0 | Delete    
TorBrowserTeam201811R          |          0 |          0 |          0 | Delete    
TorBrowserTeam201903R          |          0 |          0 |          0 | Delete    
TorBrowserTeam201904R          |          0 |          0 |          0 | Delete    
TorBrowserTeam201905R          |          0 |          0 |          0 | Delete    
TorBrowserTeam201909R          |          0 |          0 |          0 | Delete    
TorBrowserTeam201911R          |          0 |          0 |          0 | Delete    
TorBrowserTeam202002R          |          0 |          0 |          0 | Delete    
TorBrowserTeam202004R          |          0 |          0 |          0 | Delete    
TorBrowserTeam202006R          |          0 |          0 |          0 | Delete    
actualpoints::.2               |          0 |          0 |          0 | Delete    
actualpoints::.5               |          0 |          0 |          0 | Delete    
actualpoints::0.2              |          0 |          0 |          0 | Delete    
boklm201803                    |          0 |          0 |          0 | Delete    
boklm201804                    |          0 |          0 |          0 | Delete    
boklm201811                    |          0 |          0 |          0 | Delete    
component::applications/rbm    |          0 |          0 |          0 | Delete    
owner::boklm                   |          0 |          0 |          0 | Delete    
owner::tbb-team                |          0 |          0 |          0 | Delete    
parent::21998                  |          0 |          0 |          0 | Delete    
priority::medium               |          0 |          0 |          0 | Delete    
reporter::fedora0penchaos@protonmail.com |          0 |          0 |          0 | Delete    
reporter::kkuehl@gmail.com     |          0 |          0 |          0 | Delete    
resolution::duplicate          |          0 |          0 |          0 | Delete    
resolution::fixed              |          0 |          0 |          0 | Delete    
resolution::user disappeared   |          0 |          0 |          0 | Delete    
reviewer::gk                   |          0 |          0 |          0 | Delete    
severity::normal               |          0 |          0 |          0 | Delete    
status::assigned               |          0 |          0 |          0 | Delete    
status::closed                 |          0 |          0 |          0 | Delete    
status::needs-review           |          0 |          0 |          0 | Delete    
tbb-9.5a6                      |          0 |          0 |          0 | Delete    
tbb-rbm                        |          0 |          0 |          0 | Delete    
type::defect                   |          0 |          0 |          0 | Delete    
type::enhancement              |          0 |          0 |          0 | Delete    
type::task                     |          0 |          0 |          0 | Delete    
