Name                           | Open       | Closed     | MR         | Delete    
UI                             |          0 |          0 |          0 | Delete    
UX                             |          0 |          0 |          0 | Delete    
