Name                           | Open       | Closed     | MR         | Delete    
May 2020                       |          0 |          0 |          0 | Delete    
To Do                          |          0 |          0 |          0 | Delete    
