Name                           | Open       | Closed     | MR         | Delete    
component::webpages/styleguide |          0 |          0 |          0 | Delete    
milestone::website redesign    |          0 |          0 |          0 | Delete    
owner::antonela                |          0 |          0 |          0 | Delete    
owner::emmapeel                |          0 |          0 |          0 | Delete    
owner::hiro                    |          0 |          0 |          0 | Delete    
parent::23721                  |          0 |          0 |          0 | Delete    
parent::25404                  |          0 |          0 |          0 | Delete    
parent::26667                  |          0 |          0 |          0 | Delete    
parent::30024                  |          0 |          0 |          0 | Delete    
parent::30027                  |          0 |          0 |          0 | Delete    
parent::30037                  |          0 |          0 |          0 | Delete    
priority::low                  |          0 |          0 |          0 | Delete    
priority::medium               |          0 |          0 |          0 | Delete    
reporter::loxia_01             |          0 |          0 |          0 | Delete    
reporter::sarathms             |          0 |          0 |          0 | Delete    
resolution::duplicate          |          0 |          0 |          0 | Delete    
resolution::fixed              |          0 |          0 |          0 | Delete    
resolution::wontfix            |          0 |          0 |          0 | Delete    
reviewer::antonela             |          0 |          0 |          0 | Delete    
severity::major                |          0 |          0 |          0 | Delete    
severity::minor                |          0 |          0 |          0 | Delete    
severity::normal               |          0 |          0 |          0 | Delete    
severity::trivial              |          0 |          0 |          0 | Delete    
sponsor::27-can                |          0 |          0 |          0 | Delete    
status::assigned               |          0 |          0 |          0 | Delete    
status::closed                 |          0 |          0 |          0 | Delete    
status::needs-information      |          0 |          0 |          0 | Delete    
status::needs-review           |          0 |          0 |          0 | Delete    
status::new                    |          0 |          0 |          0 | Delete    
tor-hs                         |          0 |          0 |          0 | Delete    
type::defect                   |          0 |          0 |          0 | Delete    
type::enhancement              |          0 |          0 |          0 | Delete    
type::task                     |          0 |          0 |          0 | Delete    
ux-team                        |          0 |          0 |          0 | Delete    
