Name                           | Open       | Closed     | MR         | Delete    
Easy                           |          0 |          0 |          0 | Delete    
user-feedback                  |          0 |          0 |          0 | Delete    
