Name                           | Open       | Closed     | MR         | Delete    
feedback-analysed              |          0 |          0 |          0 | Delete    
remote-training                |          0 |          0 |          0 | Delete    
slides-sent                    |          0 |          0 |          0 | Delete    
